FARS
…
fars_read loads the csv data into a tibble::tbl_df

(x <- fars_read(dir(datfolder)[1]))
#> # A tibble: 30,202 x 50
#>    STATE ST_CASE VE_TOTAL VE_FORMS PVH_INVL  PEDS PERNOTMVIT PERMVIT PERSONS
#>    <dbl>   <dbl>    <dbl>    <dbl>    <dbl> <dbl>      <dbl>   <dbl>   <dbl>
#>  1     1   10001        1        1        0     0          0       8       8
#>  2     1   10002        2        2        0     0          0       2       2
#>  3     1   10003        1        1        0     0          0       1       1
#>  4     1   10004        1        1        0     0          0       3       3
#>  5     1   10005        2        2        0     0          0       3       3
#>  6     1   10006        2        2        0     0          0       3       3
#>  7     1   10007        1        1        0     0          0       1       1
#>  8     1   10008        2        2        0     0          0       2       2
#>  9     1   10009        1        1        0     0          0       1       1
#> 10     1   10010        2        2        0     0          0       4       4
#> # … with 30,192 more rows, and 41 more variables: COUNTY <dbl>, CITY <dbl>,
#> #   DAY <dbl>, MONTH <dbl>, YEAR <dbl>, DAY_WEEK <dbl>, HOUR <dbl>,
#> #   MINUTE <dbl>, NHS <dbl>, ROAD_FNC <dbl>, ROUTE <dbl>, TWAY_ID <chr>,
#> #   TWAY_ID2 <chr>, MILEPT <dbl>, LATITUDE <dbl>, LONGITUD <dbl>, SP_JUR <dbl>,
#> #   HARM_EV <dbl>, MAN_COLL <dbl>, RELJCT1 <dbl>, RELJCT2 <dbl>, TYP_INT <dbl>,
#> #   WRK_ZONE <dbl>, REL_ROAD <dbl>, LGT_COND <dbl>, WEATHER1 <dbl>,
#> #   WEATHER2 <dbl>, WEATHER <dbl>, SCH_BUS <dbl>, RAIL <chr>, NOT_HOUR <dbl>,
#> #   NOT_MIN <dbl>, ARR_HOUR <dbl>, ARR_MIN <dbl>, HOSP_HR <dbl>, HOSP_MN <dbl>,
#> #   CF1 <dbl>, CF2 <dbl>, CF3 <dbl>, FATALS <dbl>, DRUNK_DR <dbl>

fars_read_years loads multiple csv files into a list of tibbles with only the MONTH and year columns.

(x <- fars_read_years(2013:2015))
#> [[1]]
#> # A tibble: 30,202 x 2
#>    MONTH  year
#>    <dbl> <int>
#>  1     1  2013
#>  2     1  2013
#>  3     1  2013
#>  4     1  2013
#>  5     1  2013
#>  6     1  2013
#>  7     1  2013
#>  8     1  2013
#>  9     1  2013
#> 10     1  2013
#> # … with 30,192 more rows
#> 
#> [[2]]
#> # A tibble: 30,056 x 2
#>    MONTH  year
#>    <dbl> <int>
#>  1     1  2014
#>  2     1  2014
#>  3     1  2014
#>  4     1  2014
#>  5     1  2014
#>  6     1  2014
#>  7     1  2014
#>  8     1  2014
#>  9     1  2014
#> 10     1  2014
#> # … with 30,046 more rows
#> 
#> [[3]]
#> # A tibble: 32,166 x 2
#>    MONTH  year
#>    <dbl> <int>
#>  1     1  2015
#>  2     1  2015
#>  3     1  2015
#>  4     1  2015
#>  5     1  2015
#>  6     1  2015
#>  7     1  2015
#>  8     1  2015
#>  9     1  2015
#> 10     1  2015
#> # … with 32,156 more rows
…
